24

8
7
10
9
-2
8
-3
-3

2
10
4
6
14

10
10
-1
1
5
1
-3
7
1
-5
8
9

3
8
2
4
-4
-3
1
1
9

3
6
3
2
10
3
2
-5
10
-4
4
9

7
-1
3
7
8

1
-1
6
5
1
-3
1
6
5
-3
2
9
-6
8
7

2
3
8
5
10
4
4
5
-3
-6
5

7
1
3
7
-2

5
4
1
1
10
1
-2
1
-2
9
1
9
2
-5
-7
-4
5

6
10
-2
-1
4
9
6
2
2
6
-3
-5
5
-1
10
-1

1
4
4
-3
1
10
-3
4
3

9
4
3
4

8
-1
2
8
1

1
13
22
-2
-1
35

3
2
12

3
2
5
4
5
10
-5
1
-5
8
-4
5
7

8
8
7
2
6
1
3
11

5
10
9
3
10
4
8
4
2
10
9
5

1
4
33
3
-3

10
7
8
9
-2
-2
1
4
4
7
8
8

4
1
4
5
9
1
9
-5
-3
7

1
-1
7
1
-2
1
6
4
1
1
1
4
11

6
10
4
3
9
5
-6
-5
7
6
3
