-16 8 -24 -32 -24 -80 760
-64 40 -64 -56 736
-8 112 -56 -56 -72 648
-24 -64 -72 -8 -40 -80 656
-56 -8 8 -24 -24 -16 16 -32 744
-40 -24 -32 -8 16 -56 -80 -56 -56 -72 472
-80 -8 -40 840
-64 16 -8 32 -40 -40 -48 40 -56 576
-8 -8 -16 -72 -40 -64 -40 688
-72 56 -32 -24 -40 -72 -16 40 -56 -72 432
-8 -16 -24 -8 -32 -56 -64 -64 -8 640
-8 -8 -32 -8 -56 -16 816
-56 -64 -56 -72 -16 688
-72 -8 -128 760
40 -32 -56 -24 -32 -40 -72 -240 392
-8 -48 -72 -56 -40 -16 -8 -80 56 -16 -40 -56 400
-48 -80 -8 -8 -72 736
-16 -32 120 -24 -16 744
-24 -16 -72 -80 -56 -48 -16 -56 -80 472
-16 48 -40 -64 16 -8 -80 40 -80 -80 440
-80 -24 8 -64 -80 -72 -96 512
-32 32 -24 -64 808
